%YAML 1.1
%TAG !u! tag:unity3d.com,2011:
--- !u!1045 &1
EditorBuildSettings:
  m_ObjectHideFlags: 0
  serializedVersion: 2
  m_Scenes:
  - enabled: 0
    path: 
    guid: 00000000000000000000000000000000
  - enabled: 1
    path: Assets/VRScene.unity
    guid: 1bb59819349027f49864634f6f0f2f28
  - enabled: 1
    path: Assets/VRScene.unity
    guid: 1bb59819349027f49864634f6f0f2f28
  - enabled: 1
    path: Assets/vrscene2.unity
    guid: 2e90876f8debea34486a510a8af91c57
